{
  "coord": {
    "lon": 28.6767,
    "lat": 50.2649
  },
  "weather": [
    {
      "id": 802,
      "main": "Clouds",
      "description": "scattered clouds",
      "icon": "03d"
    }
  ],
  "base": "stations",
  "main": {
    "temp": 290.58,
    "feels_like": 289.61,
    "temp_min": 290.58,
    "temp_max": 290.58,
    "pressure": 1020,
    "humidity": 47,
    "sea_level": 1020,
    "grnd_level": 995
  },
  "visibility": 10000,
  "wind": {
    "speed": 3.95,
    "deg": 260,
    "gust": 5.84
  },
  "clouds": {
    "all": 46
  },
  "dt": 1715333612,
  "sys": {
    "country": "UA",
    "sunrise": 1715307923,
    "sunset": 1715362683
  },
  "timezone": 10800,
  "id": 686967,
  "name": "Zhytomyr",
  "cod": 200
}
